Department0-University0,University0
Department0-University0-ResearchGroup0,Department0-University0
Department0-University0-ResearchGroup1,Department0-University0
Department0-University0-ResearchGroup2,Department0-University0
Department0-University0-ResearchGroup3,Department0-University0
Department0-University0-ResearchGroup4,Department0-University0
Department0-University0-ResearchGroup5,Department0-University0
Department0-University0-ResearchGroup6,Department0-University0
Department0-University0-ResearchGroup7,Department0-University0
Department0-University0-ResearchGroup8,Department0-University0
Department0-University0-ResearchGroup9,Department0-University0